{
  "Table": {
    "TableArn": "arn:aws:dynamodb:ddblocal:000000000000:table/auth_users", 
    "AttributeDefinitions": [
      {
        "AttributeName": "username", 
        "AttributeType": "S"
      }, 
      {
        "AttributeName": "company_id", 
        "AttributeType": "N"
      }
    ], 
    "GlobalSecondaryIndexes": [
      {
        "IndexSizeBytes": 2487, 
        "IndexName": "company-user-index", 
        "Projection": {
          "ProjectionType": "ALL"
        }, 
        "ProvisionedThroughput": {
          "WriteCapacityUnits": 1, 
          "ReadCapacityUnits": 2
        }, 
        "IndexStatus": "ACTIVE", 
        "KeySchema": [
          {
            "KeyType": "HASH", 
            "AttributeName": "company_id"
          }
        ], 
        "IndexArn": "arn:aws:dynamodb:ddblocal:000000000000:table/auth_users/index/company-user-index", 
        "ItemCount": 10
      }
    ], 
    "ProvisionedThroughput": {
      "NumberOfDecreasesToday": 0, 
      "WriteCapacityUnits": 1, 
      "LastIncreaseDateTime": 0.0, 
      "ReadCapacityUnits": 1, 
      "LastDecreaseDateTime": 0.0
    }, 
    "TableSizeBytes": 2487, 
    "TableName": "auth_users", 
    "TableStatus": "ACTIVE", 
    "KeySchema": [
      {
        "KeyType": "HASH", 
        "AttributeName": "username"
      }
    ], 
    "ItemCount": 10, 
    "CreationDateTime": 1543137890.869
  }
}