{
  "Table": {
    "TableArn": "arn:aws:dynamodb:ddblocal:000000000000:table/company", 
    "AttributeDefinitions": [
      {
        "AttributeName": "id", 
        "AttributeType": "N"
      }
    ], 
    "ProvisionedThroughput": {
      "NumberOfDecreasesToday": 0, 
      "WriteCapacityUnits": 1, 
      "LastIncreaseDateTime": 0.0, 
      "ReadCapacityUnits": 1, 
      "LastDecreaseDateTime": 0.0
    }, 
    "TableSizeBytes": 202, 
    "TableName": "company", 
    "TableStatus": "ACTIVE", 
    "KeySchema": [
      {
        "KeyType": "HASH", 
        "AttributeName": "id"
      }
    ], 
    "ItemCount": 2, 
    "CreationDateTime": 1542941491.88
  }
}