{
  "Count": 16, 
  "Items": [
    {
      "name": {
        "S": "Achats"
      }
    }, 
    {
      "name": {
        "S": "Commercial"
      }
    }, 
    {
      "name": {
        "S": "Juridique"
      }
    }, 
    {
      "name": {
        "S": "Vente"
      }
    }, 
    {
      "name": {
        "S": "Marketing"
      }
    }, 
    {
      "name": {
        "S": "Ing\u00e9nierie"
      }
    }, 
    {
      "name": {
        "S": "S\u00e9curit\u00e9"
      }
    }, 
    {
      "name": {
        "S": "Ressource Humaine"
      }
    }, 
    {
      "name": {
        "S": "Recherche et D\u00e9veloppement"
      }
    }, 
    {
      "name": {
        "S": "Comptabilit\u00e9"
      }
    }, 
    {
      "name": {
        "S": "Qualit\u00e9"
      }
    }, 
    {
      "name": {
        "S": "Support Technique"
      }
    }, 
    {
      "name": {
        "S": "Logistique"
      }
    }, 
    {
      "name": {
        "S": "Finance"
      }
    }, 
    {
      "name": {
        "S": "Technique"
      }
    }, 
    {
      "name": {
        "S": "Service en ligne"
      }
    }
  ], 
  "ScannedCount": 16
}